…
build_from_derived(metacore, ds_list) %>% # To pull in columns from DM to be in ADSL
   select(USUBJID, AGE, ETHNIC) %>% 
   create_cat_var(metacore, AGE, AGEGR1, AGEGR1N) %>% #Add an AGEGR1 and AGEGR1N column
   convert_var_to_fct(metacore, ETHNIC) # Change ETHNIC to as factor 
#> # A tibble: 306 x 5
#>    USUBJID       AGE ETHNIC                 AGEGR1 AGEGR1N
#>    <chr>       <dbl> <fct>                  <chr>  <chr>  
#>  1 01-701-1015    63 HISPANIC OR LATINO     <65    1      
#>  2 01-701-1023    64 HISPANIC OR LATINO     <65    1      
#>  3 01-701-1028    71 NOT HISPANIC OR LATINO 65-80  2      
#>  4 01-701-1033    74 NOT HISPANIC OR LATINO 65-80  2      
#>  5 01-701-1034    77 NOT HISPANIC OR LATINO 65-80  2      
#>  6 01-701-1047    85 NOT HISPANIC OR LATINO >80    3      
#>  7 01-701-1057    59 HISPANIC OR LATINO     <65    1      
#>  8 01-701-1097    68 NOT HISPANIC OR LATINO 65-80  2      
#>  9 01-701-1111    81 NOT HISPANIC OR LATINO >80    3      
#> 10 01-701-1115    84 NOT HISPANIC OR LATINO >80    3      
#> # ... with 296 more rows
```
…
