…
load(metacore_example("pilot_ADaM.rda"))
spec <- metacore %>% select_dataset("ADSL")
#> Warning: `core` from the `ds_vars` table only contains missing values.
#> Warning: `supp_flag` from the `ds_vars` table only contains missing values.
#> Warning: `common` from the `var_spec` table only contains missing values.
#> Warning: `where` from the `value_spec` table only contains missing values.
#> Warning: `dataset` from the `supp` table only contains missing values.
#> Warning: `variable` from the `supp` table only contains missing values.
#> Warning: `idvar` from the `supp` table only contains missing values.
#> Warning: `qeval` from the `supp` table only contains missing values.
#> ✔ ADSL dataset successfully selected
#> 
ds_list <- list(DM = read_xpt(metatools_example("dm.xpt")))
build_from_derived(spec, ds_list, predecessor_only = FALSE)
#> # A tibble: 306 × 13
#>    USUBJID     SUBJID SITEID ARM     TRT01P   AGE AGEU  RACE  SEX   ETHNIC DTHFL
#>    <chr>       <chr>  <chr>  <chr>   <chr>  <dbl> <chr> <chr> <chr> <chr>  <chr>
#>  1 01-701-1015 1015   701    Placebo Place…    63 YEARS WHITE F     HISPA… ""   
#>  2 01-701-1023 1023   701    Placebo Place…    64 YEARS WHITE M     HISPA… ""   
#>  3 01-701-1028 1028   701    Xanome… Xanom…    71 YEARS WHITE M     NOT H… ""   
#>  4 01-701-1033 1033   701    Xanome… Xanom…    74 YEARS WHITE M     NOT H… ""   
#>  5 01-701-1034 1034   701    Xanome… Xanom…    77 YEARS WHITE F     NOT H… ""   
#>  6 01-701-1047 1047   701    Placebo Place…    85 YEARS WHITE F     NOT H… ""   
#>  7 01-701-1057 1057   701    Screen… Scree…    59 YEARS WHITE F     HISPA… ""   
#>  8 01-701-1097 1097   701    Xanome… Xanom…    68 YEARS WHITE M     NOT H… ""   
#>  9 01-701-1111 1111   701    Xanome… Xanom…    81 YEARS WHITE F     NOT H… ""   
#> 10 01-701-1115 1115   701    Xanome… Xanom…    84 YEARS WHITE M     NOT H… ""   
#> # ℹ 296 more rows
#> # ℹ 2 more variables: RFSTDTC <chr>, RFENDTC <chr>
```
