Check Control Terminology for a Single Column — check_ct_col • metatools
…
    Value

    Given data if column only contains control terms. If not, will error
given the values which should not be in the column

    Examples

library(metacore)
library(haven)
library(magrittr)
load(metacore_example("pilot_ADaM.rda"))
spec <- metacore %>% select_dataset("ADSL")
data <- read_xpt(metatools_example("adsl.xpt"))
check_ct_col(data, spec, TRT01PN)
#> # A tibble: 254 × 49
#>    STUDYID     USUBJID SUBJID SITEID SITEGR1 ARM   TRT01P TRT01PN TRT01A TRT01AN
#>    <chr>       <chr>   <chr>  <chr>  <chr>   <chr> <chr>    <dbl> <chr>    <dbl>
#>  1 CDISCPILOT… 01-701… 1015   701    701     Plac… Place…       0 Place…       0
#>  2 CDISCPILOT… 01-701… 1023   701    701     Plac… Place…       0 Place…       0
#>  3 CDISCPILOT… 01-701… 1028   701    701     Xano… Xanom…      81 Xanom…      81
#>  4 CDISCPILOT… 01-701… 1033   701    701     Xano… Xanom…      54 Xanom…      54
#>  5 CDISCPILOT… 01-701… 1034   701    701     Xano… Xanom…      81 Xanom…      81
#>  6 CDISCPILOT… 01-701… 1047   701    701     Plac… Place…       0 Place…       0
#>  7 CDISCPILOT… 01-701… 1097   701    701     Xano… Xanom…      54 Xanom…      54
#>  8 CDISCPILOT… 01-701… 1111   701    701     Xano… Xanom…      54 Xanom…      54
#>  9 CDISCPILOT… 01-701… 1115   701    701     Xano… Xanom…      54 Xanom…      54
#> 10 CDISCPILOT… 01-701… 1118   701    701     Plac… Place…       0 Place…       0
#> # ℹ 244 more rows
#> # ℹ 39 more variables: TRTSDT <date>, TRTEDT <date>, TRTDURD <dbl>,
#> #   AVGDD <dbl>, CUMDOSE <dbl>, AGE <dbl>, AGEGR1 <chr>, AGEGR1N <dbl>,
#> #   AGEU <chr>, RACE <chr>, RACEN <dbl>, SEX <chr>, ETHNIC <chr>, SAFFL <chr>,
#> #   ITTFL <chr>, EFFFL <chr>, COMP8FL <chr>, COMP16FL <chr>, COMP24FL <chr>,
#> #   DISCONFL <chr>, DSRAEFL <chr>, DTHFL <chr>, BMIBL <dbl>, BMIBLGR1 <chr>,
#> #   HEIGHTBL <dbl>, WEIGHTBL <dbl>, EDUCLVL <dbl>, DISONSDT <date>, …
check_ct_col(data, spec, "TRT01PN")
#> # A tibble: 254 × 49
#>    STUDYID     USUBJID SUBJID SITEID SITEGR1 ARM   TRT01P TRT01PN TRT01A TRT01AN
#>    <chr>       <chr>   <chr>  <chr>  <chr>   <chr> <chr>    <dbl> <chr>    <dbl>
#>  1 CDISCPILOT… 01-701… 1015   701    701     Plac… Place…       0 Place…       0
#>  2 CDISCPILOT… 01-701… 1023   701    701     Plac… Place…       0 Place…       0
#>  3 CDISCPILOT… 01-701… 1028   701    701     Xano… Xanom…      81 Xanom…      81
#>  4 CDISCPILOT… 01-701… 1033   701    701     Xano… Xanom…      54 Xanom…      54
#>  5 CDISCPILOT… 01-701… 1034   701    701     Xano… Xanom…      81 Xanom…      81
#>  6 CDISCPILOT… 01-701… 1047   701    701     Plac… Place…       0 Place…       0
#>  7 CDISCPILOT… 01-701… 1097   701    701     Xano… Xanom…      54 Xanom…      54
#>  8 CDISCPILOT… 01-701… 1111   701    701     Xano… Xanom…      54 Xanom…      54
#>  9 CDISCPILOT… 01-701… 1115   701    701     Xano… Xanom…      54 Xanom…      54
#> 10 CDISCPILOT… 01-701… 1118   701    701     Plac… Place…       0 Place…       0
#> # ℹ 244 more rows
#> # ℹ 39 more variables: TRTSDT <date>, TRTEDT <date>, TRTDURD <dbl>,
#> #   AVGDD <dbl>, CUMDOSE <dbl>, AGE <dbl>, AGEGR1 <chr>, AGEGR1N <dbl>,
#> #   AGEU <chr>, RACE <chr>, RACEN <dbl>, SEX <chr>, ETHNIC <chr>, SAFFL <chr>,
#> #   ITTFL <chr>, EFFFL <chr>, COMP8FL <chr>, COMP16FL <chr>, COMP24FL <chr>,
#> #   DISCONFL <chr>, DSRAEFL <chr>, DTHFL <chr>, BMIBL <dbl>, BMIBLGR1 <chr>,
#> #   HEIGHTBL <dbl>, WEIGHTBL <dbl>, EDUCLVL <dbl>, DISONSDT <date>, …
…
