…
#> Warning: `core` from the `ds_vars` table only contains missing values.
#> Warning: `supp_flag` from the `ds_vars` table only contains missing values.
#> Warning: `common` from the `var_spec` table only contains missing values.
#> Warning: `where` from the `value_spec` table only contains missing values.
#> Warning: `dataset` from the `supp` table only contains missing values.
#> Warning: `variable` from the `supp` table only contains missing values.
#> Warning: `idvar` from the `supp` table only contains missing values.
#> Warning: `qeval` from the `supp` table only contains missing values.
#> ✔ ADSL dataset successfully selected
#> 
dm <- read_xpt(metatools_example("dm.xpt")) %>%
  select(USUBJID, SEX, ARM)
# Variable with codelist control terms
convert_var_to_fct(dm, spec, SEX)
#> # A tibble: 306 × 3
#>    USUBJID     SEX   ARM                 
#>    <chr>       <fct> <chr>               
#>  1 01-701-1015 F     Placebo             
#>  2 01-701-1023 M     Placebo             
#>  3 01-701-1028 M     Xanomeline High Dose
#>  4 01-701-1033 M     Xanomeline Low Dose 
#>  5 01-701-1034 F     Xanomeline High Dose
#>  6 01-701-1047 F     Placebo             
#>  7 01-701-1057 F     Screen Failure      
#>  8 01-701-1097 M     Xanomeline Low Dose 
#>  9 01-701-1111 F     Xanomeline Low Dose 
#> 10 01-701-1115 M     Xanomeline Low Dose 
#> # ℹ 296 more rows
# Variable with permitted value control terms
convert_var_to_fct(dm, spec, ARM)
#> # A tibble: 306 × 3
#>    USUBJID     SEX   ARM                 
#>    <chr>       <chr> <fct>               
#>  1 01-701-1015 F     Placebo             
#>  2 01-701-1023 M     Placebo             
#>  3 01-701-1028 M     Xanomeline High Dose
#>  4 01-701-1033 M     Xanomeline Low Dose 
#>  5 01-701-1034 F     Xanomeline High Dose
#>  6 01-701-1047 F     Placebo             
#>  7 01-701-1057 F     NA                  
#>  8 01-701-1097 M     Xanomeline Low Dose 
#>  9 01-701-1111 F     Xanomeline Low Dose 
#> 10 01-701-1115 M     Xanomeline Low Dose 
#> # ℹ 296 more rows
```
