…
#> Warning: `core` from the `ds_vars` table only contains missing values.
#> Warning: `supp_flag` from the `ds_vars` table only contains missing values.
#> Warning: `common` from the `var_spec` table only contains missing values.
#> Warning: `where` from the `value_spec` table only contains missing values.
#> Warning: `dataset` from the `supp` table only contains missing values.
#> Warning: `variable` from the `supp` table only contains missing values.
#> Warning: `idvar` from the `supp` table only contains missing values.
#> Warning: `qeval` from the `supp` table only contains missing values.
#> ✔ ADSL dataset successfully selected
#> 
dm <- read_xpt(metatools_example("dm.xpt")) %>%
  select(USUBJID, AGE)
# Grouping Column Only
create_cat_var(dm, spec, AGE, AGEGR1)
#> # A tibble: 306 × 3
#>    USUBJID       AGE AGEGR1
#>    <chr>       <dbl> <chr> 
#>  1 01-701-1015    63 <65   
#>  2 01-701-1023    64 <65   
#>  3 01-701-1028    71 65-80 
#>  4 01-701-1033    74 65-80 
#>  5 01-701-1034    77 65-80 
#>  6 01-701-1047    85 >80   
#>  7 01-701-1057    59 <65   
#>  8 01-701-1097    68 65-80 
#>  9 01-701-1111    81 >80   
#> 10 01-701-1115    84 >80   
#> # ℹ 296 more rows
# Grouping Column and Numeric Decode
create_cat_var(dm, spec, AGE, AGEGR1, AGEGR1N)
#> # A tibble: 306 × 4
#>    USUBJID       AGE AGEGR1 AGEGR1N
#>    <chr>       <dbl> <chr>    <dbl>
#>  1 01-701-1015    63 <65          1
#>  2 01-701-1023    64 <65          1
#>  3 01-701-1028    71 65-80        2
#>  4 01-701-1033    74 65-80        2
#>  5 01-701-1034    77 65-80        2
#>  6 01-701-1047    85 >80          3
#>  7 01-701-1057    59 <65          1
#>  8 01-701-1097    68 65-80        2
#>  9 01-701-1111    81 >80          3
#> 10 01-701-1115    84 >80          3
#> # ℹ 296 more rows
```
