…
#> Warning: `common` from the `var_spec` table only contains missing values.
#> Warning: `where` from the `value_spec` table only contains missing values.
#> Warning: `dataset` from the `supp` table only contains missing values.
#> Warning: `variable` from the `supp` table only contains missing values.
#> Warning: `idvar` from the `supp` table only contains missing values.
#> Warning: `qeval` from the `supp` table only contains missing values.
#> ✔ ADSL dataset successfully selected
#> 
data <- read_xpt(metatools_example("adsl.xpt")) %>%
  select(USUBJID, SITEID) %>%
  mutate(foo = "Hello")
drop_unspec_vars(data, spec)
#> The following variable(s) were dropped:
#>   foo
#> # A tibble: 254 × 2
#>    USUBJID     SITEID
#>    <chr>       <chr> 
#>  1 01-701-1015 701   
#>  2 01-701-1023 701   
#>  3 01-701-1028 701   
#>  4 01-701-1033 701   
#>  5 01-701-1034 701   
#>  6 01-701-1047 701   
#>  7 01-701-1097 701   
#>  8 01-701-1111 701   
#>  9 01-701-1115 701   
#> 10 01-701-1118 701   
#> # ℹ 244 more rows
```
