…
#>   for a single dataset.
#> Warning: The `dataset_name` argument of `check_unique_keys()` is deprecated as of
#> metatools 0.2.0.
#> Warning: `core` from the `ds_vars` table only contains missing values.
#> Warning: `supp_flag` from the `ds_vars` table only contains missing values.
#> Warning: `format` from the `var_spec` table only contains missing values.
#> Warning: `sig_dig` from the `value_spec` table only contains missing values.
#> Warning: `where` from the `value_spec` table only contains missing values.
#> Warning: `dataset` from the `supp` table only contains missing values.
#> Warning: `variable` from the `supp` table only contains missing values.
#> Warning: `idvar` from the `supp` table only contains missing values.
#> Warning: `qeval` from the `supp` table only contains missing values.
#> ✔ DM dataset successfully selected
#> 
#> # A tibble: 306 × 25
#>    STUDYID      DOMAIN USUBJID  SUBJID RFSTDTC RFENDTC RFXSTDTC RFXENDTC RFICDTC
#>    <chr>        <chr>  <chr>    <chr>  <chr>   <chr>   <chr>    <chr>    <chr>  
#>  1 CDISCPILOT01 DM     01-701-… 1015   "2014-… "2014-… "2014-0… "2014-0… ""     
#>  2 CDISCPILOT01 DM     01-701-… 1023   "2012-… "2012-… "2012-0… "2012-0… ""     
#>  3 CDISCPILOT01 DM     01-701-… 1028   "2013-… "2014-… "2013-0… "2014-0… ""     
#>  4 CDISCPILOT01 DM     01-701-… 1033   "2014-… "2014-… "2014-0… "2014-0… ""     
#>  5 CDISCPILOT01 DM     01-701-… 1034   "2014-… "2014-… "2014-0… "2014-1… ""     
#>  6 CDISCPILOT01 DM     01-701-… 1047   "2013-… "2013-… "2013-0… "2013-0… ""     
#>  7 CDISCPILOT01 DM     01-701-… 1057   ""      ""      ""       ""       ""     
#>  8 CDISCPILOT01 DM     01-701-… 1097   "2014-… "2014-… "2014-0… "2014-0… ""     
#>  9 CDISCPILOT01 DM     01-701-… 1111   "2012-… "2012-… "2012-0… "2012-0… ""     
#> 10 CDISCPILOT01 DM     01-701-… 1115   "2012-… "2013-… "2012-1… "2013-0… ""     
#> # ℹ 296 more rows
#> # ℹ 16 more variables: RFPENDTC <chr>, DTHDTC <chr>, DTHFL <chr>, SITEID <chr>,
#> #   AGE <dbl>, AGEU <chr>, SEX <chr>, RACE <chr>, ETHNIC <chr>, ARMCD <chr>,
#> #   ARM <chr>, ACTARMCD <chr>, ACTARM <chr>, COUNTRY <chr>, DMDTC <chr>,
#> #   DMDY <dbl>
```
